Assignment 03 - Text Mining
…
Tokenize the abstracts and count the number of each token. Do you see anything interesting? Does removing stop words change what tokens appear as the most frequent? What are the 5 most common tokens for each search term after removing stopwords?

Without grouping by search term, the top 10 search terms are stop words except for “covid” and “19”, revealing its importance in recent years of research, possibly across search term.

Without removing stopwords the most common words are stop words except for covid and 19 within each term. This may reveal that papers covid-19 were the most common among the 5 different PubMed searchers. After removing stopword, the trend continues with “covid” and “19” being the top 2 search terms. The rest of the top 10 search terms are related to search terms “prostate”, “cancer”, “pre”, “eclampsia”, “preeclampsia” and terms related to maternal health such as “women” and “pregnancy”.

After reviewing the top 5 words per search term (table above) , the tokens are all related directly to the serach term themselves. For example the top 2 terms related to cystic fibrosis are “cystic” and “fibrosis”

# top words overall regardles of search term 
abstracts %>%
  unnest_tokens(word, abstract) %>%
  count(word, sort=TRUE) 

# A tibble: 20,567 × 2
   word      n
   <chr> <int>
 1 the   28126
 2 of    24760
 3 and   19993
 4 in    14653
 5 to    10920
 6 a      8245
 7 with   8038
 8 covid  7275
 9 19     7080
10 is     5649
# ℹ 20,557 more rows

# without removing stopwords - results in mostly stopwords except for covid and 19 in the top 10
abstracts %>%
  unnest_tokens(word, abstract) %>%
  group_by(term) %>%
  count(word, sort=TRUE) 

# A tibble: 39,240 × 3
# Groups:   term [5]
   term            word      n
   <chr>           <chr> <int>
 1 covid           the    9741
 2 covid           of     7668
 3 covid           covid  7275
 4 preeclampsia    the    7119
 5 covid           19     7035
 6 covid           and    6861
 7 preeclampsia    of     6837
 8 prostate cancer the    6100
 9 prostate cancer of     5682
10 preeclampsia    and    5255
# ℹ 39,230 more rows

#  removing stopwords -  grouping by search term
abstracts %>%
  unnest_tokens(word, abstract) %>%
  anti_join(stop_words, by = "word") %>%  
  group_by(term) %>%
  count(word, sort=TRUE) 

# A tibble: 36,863 × 3
# Groups:   term [5]
   term            word             n
   <chr>           <chr>        <int>
 1 covid           covid         7275
 2 covid           19            7035
 3 prostate cancer cancer        3840
 4 prostate cancer prostate      3832
 5 covid           patients      2293
 6 preeclampsia    pre           2038
 7 preeclampsia    eclampsia     2005
 8 preeclampsia    preeclampsia  1863
 9 preeclampsia    women         1196
10 preeclampsia    pregnancy      969
# ℹ 36,853 more rows
…
