Lab 6
…
Warning: Expected 3 pieces. Additional pieces discarded in 2997 rows [7121, 7122, 9654,
9655, 12972, 12973, 12983, 12984, 36873, 36874, 52127, 52128, 52147, 52148,
57218, 57219, 65552, 65553, 69648, 69649, ...].

Warning: Expected 3 pieces. Missing pieces filled with `NA` in 2367280 rows [1, 2, 3, 4,
5, 6, 7, 8, 9, 10, 11, 12, 13, 14, 15, 16, 17, 18, 19, 20, ...].

# A tibble: 588 × 2
   word2         n
   <chr>     <int>
 1 was        6293
 2 is         3332
 3 s          2143
 4 has        1417
 5 tolerated   994
 6 had         888
 7 will        616
 8 denies      552
 9 and         377
10 states      363
# ℹ 578 more rows
#after
mt_samples |>
  unnest_ngrams(ngram, transcription, n=2) |> 
  separate(ngram, into=c("word1", "word2", sep=" ")) |>
  select(word1, word2) |>
  filter(word2 == "patient") |>
  count(word1, sort=TRUE)

Warning: Expected 3 pieces. Additional pieces discarded in 2997 rows [7121, 7122, 9654,
9655, 12972, 12973, 12983, 12984, 36873, 36874, 52127, 52128, 52147, 52148,
57218, 57219, 65552, 65553, 69648, 69649, ...].
Expected 3 pieces. Missing pieces filled with `NA` in 2367280 rows [1, 2, 3, 4,
5, 6, 7, 8, 9, 10, 11, 12, 13, 14, 15, 16, 17, 18, 19, 20, ...].

# A tibble: 279 × 2
   word1         n
   <chr>     <int>
 1 the       22312
 2 this        509
 3 history     106
 4 a            67
 5 and          51
 6 with         46
 7 procedure    32
 8 female       28
 9 to           28
10 use          24
# ℹ 269 more rows

Question 6

Which words are most used in each of the specialties. you can use group_by() and top_n() from dplyr to have the calculations be done within each specialty. Remember to remove stopwords. How about the most 5 used words?

mt_samples %>%
  unnest_tokens(word, transcription) %>%
  anti_join(stop_words, by = c("word")) %>% # removes stopwords
  filter(!str_detect(word, "\\d+")) %>% # removes numbers
  group_by(medical_specialty) %>%
  count(word, sort = TRUE) %>%
  top_n(1, n) %>%
  arrange(medical_specialty) # arranges by medical specialty

# A tibble: 42 × 3
# Groups:   medical_specialty [40]
   medical_specialty          word        n
   <chr>                      <chr>   <int>
 1 Allergy / Immunology       history    38
 2 Autopsy                    left       83
 3 Bariatrics                 patient    62
 4 Cardiovascular / Pulmonary left     1550
 5 Chiropractic               pain      187
 6 Consult - History and Phy. patient  3046
 7 Cosmetic / Plastic Surgery patient   116
 8 Dentistry                  patient   195
 9 Dermatology                patient   101
10 Dermatology                skin      101
# ℹ 32 more rows

mt_samples %>%
  unnest_tokens(word, transcription) %>%
  anti_join(stop_words, by = c("word")) %>% # remove stopword
  filter(!str_detect(word, "\\d+")) %>% # remove number
  group_by(medical_specialty) %>%
  count(word, sort = TRUE) %>%
  top_n(5, n) %>%
  arrange(medical_specialty) 

# A tibble: 210 × 3
# Groups:   medical_specialty [40]
   medical_specialty    word          n
   <chr>                <chr>     <int>
 1 Allergy / Immunology history      38
 2 Allergy / Immunology noted        23
 3 Allergy / Immunology patient      22
 4 Allergy / Immunology allergies    21
 5 Allergy / Immunology nasal        13
 6 Allergy / Immunology past         13
 7 Autopsy              left         83
 8 Autopsy              inch         59
 9 Autopsy              neck         55
10 Autopsy              anterior     47
# ℹ 200 more rows
…
Ideas:

Interesting ngrams

See if certain words are used more in some specialties then others

# tf:  and and idf - important words

mt_samples %>%
  unnest_tokens(text, transcription) %>%
  count(text, medical_specialty) %>%
  bind_tf_idf(text, medical_specialty, n) %>%
  arrange(desc(tf_idf))

# A tibble: 164,715 × 6
   text         medical_specialty            n      tf   idf  tf_idf
   <chr>        <chr>                    <int>   <dbl> <dbl>   <dbl>
 1 carbohydrate Diets and Nutritions        37 0.00904 2.30  0.0208 
 2 reactivity   Lab Medicine - Pathology     7 0.00360 3.00  0.0108 
 3 calories     Diets and Nutritions        24 0.00586 1.61  0.00943
 4 tumor        Lab Medicine - Pathology    35 0.0180  0.470 0.00847
 5 meal         Diets and Nutritions        26 0.00635 1.29  0.00820
 6 tooth        Dentistry                  108 0.00763 1.05  0.00801
 7 linguistic   Speech - Language           13 0.00343 2.30  0.00789
 8 lymph        Lab Medicine - Pathology    30 0.0154  0.511 0.00789
 9 designated   Lab Medicine - Pathology     5 0.00257 3.00  0.00771
10 lobe         Lab Medicine - Pathology    29 0.0149  0.511 0.00762
# ℹ 164,705 more rows
